[
 {
 "Content-Location": "http://schema.org/",
 "X-Classpath": "schema.jsonld",
 "Content-Type": "application/ld+json"
 },
  {
 "Content-Location": "http://schema.org",
 "X-Classpath": "schema.jsonld",
 "Content-Type": "application/ld+json"
 },
   {
 "Content-Location": "http://www.schema.org",
 "X-Classpath": "schema.jsonld",
 "Content-Type": "application/ld+json"
 }
]